…
ℹ Use `spec()` to retrieve the full column specification for this data.
ℹ Specify the column types or set `show_col_types = FALSE` to quiet this message.
Rows: 1456 Columns: 13
── Column specification ────────────────────────────────────────────────────────
Delimiter: ","
chr (6): sub, video, original_code, high_low_code, actor, emotion
dbl (7): r_happy, r_disgust, r_sad, r_fear, r_anger, r_pain, movie_cope_number

ℹ Use `spec()` to retrieve the full column specification for this data.
ℹ Specify the column types or set `show_col_types = FALSE` to quiet this message.
# A tibble: 21,560 × 2
   sub   value
   <chr> <dbl>
 1 02     2.83
 2 02    10.8 
 3 02     9.64
 4 02    10.8 
 5 02     9.91
 6 02    11.1 
 7 02     9.64
 8 02     8.25
 9 02     8.31
10 02     9.43
# ℹ 21,550 more rows
6.125 sec elapsed
New names:
• `` -> `...1`
• `` -> `...2`
• `` -> `...3`
• `` -> `...4`
• `` -> `...5`
• `` -> `...6`
• `` -> `...7`
• `` -> `...8`
• `` -> `...9`
• `` -> `...10`
# A tibble: 1,540 × 10
   `304150` `304151` `304152` `304153` `304154` `314067` `314068` `314069`
      <dbl>    <dbl>    <dbl>    <dbl>    <dbl>    <dbl>    <dbl>    <dbl>
 1     188.     269.     478.     509.     372.    419.      251.     254.
 2     104.     143.     196.     193.     144.    267.      178.     188.
 3     218.     271.     305.     239.     136.     63.7     205.     314.
 4     145.     234.     466.     540.     414.    210.      191.     190.
 5    1261.    1223.    1089.     600.     210.    614.     1115.    1589.
 6     432.     399.     330.     224.     123.    459.      414.     516.
 7     652.     626.     536.     382.     220.    133.      486.     705.
 8     182.     289.     359.     301.     163.    128.      234.     301.
 9     518.     387.     379.     398.     338.    830.      879.     886.
10     132.     119.     184.     203.     124.    244.      125.     209.
# ℹ 1,530 more rows
# ℹ 2 more variables: `314070` <dbl>, `314071` <dbl>
…
• `` -> `...115`
• `` -> `...116`
• `` -> `...117`
• `` -> `...118`
• `` -> `...119`
• `` -> `...120`
• `` -> `...121`
• `` -> `...122`
• `` -> `...123`
• `` -> `...124`
• `` -> `...125`
• `` -> `...126`
• `` -> `...127`
• `` -> `...128`27.758 sec elapsed
# A tibble: 1,792 × 4
# Groups:   sub, region [1,792]
   sub   region fmri                 rat                 
   <chr> <chr>  <list>               <list>              
 1 02    304150 <tibble [1,540 × 1]> <tibble [1,540 × 1]>
 2 02    304151 <tibble [1,540 × 1]> <tibble [1,540 × 1]>
 3 02    304152 <tibble [1,540 × 1]> <tibble [1,540 × 1]>
 4 02    304153 <tibble [1,540 × 1]> <tibble [1,540 × 1]>
 5 02    304154 <tibble [1,540 × 1]> <tibble [1,540 × 1]>
 6 02    314067 <tibble [1,540 × 1]> <tibble [1,540 × 1]>
 7 02    314068 <tibble [1,540 × 1]> <tibble [1,540 × 1]>
 8 02    314069 <tibble [1,540 × 1]> <tibble [1,540 × 1]>
 9 02    314070 <tibble [1,540 × 1]> <tibble [1,540 × 1]>
10 02    314071 <tibble [1,540 × 1]> <tibble [1,540 × 1]>
# ℹ 1,782 more rows
…
