…
ℹ Use `spec()` to retrieve the full column specification for this data.
ℹ Specify the column types or set `show_col_types = FALSE` to quiet this message.
# A tibble: 1,456 × 8
   sub   video     r_valence original_code high_low_code movie_cope_number actor
   <chr> <chr>         <dbl> <chr>         <chr>                     <dbl> <chr>
 1 02    AK_A_32.…         1 AK_A_32       AK_A_high                     1 AK   
 2 02    AK_A_04.…         3 AK_A_04       AK_A_low                      2 AK   
 3 02    AK_D_12.…         1 AK_D_12       AK_D_high                     3 AK   
 4 02    AK_D_02.…         3 AK_D_02       AK_D_low                      4 AK   
 5 02    AK_F_24.…         1 AK_F_24       AK_F_high                     5 AK   
 6 02    AK_F_02.…         2 AK_F_02       AK_F_low                      6 AK   
 7 02    AK_H_15.…         9 AK_H_15       AK_H_high                     7 AK   
 8 02    AK_H_28.…         7 AK_H_28       AK_H_low                      8 AK   
 9 02    AK_N_09.…         5 AK_N_09       AK_N_high                     9 AK   
10 02    AK_N_01.…         5 AK_N_01       AK_N_low                     10 AK   
# ℹ 1,446 more rows
# ℹ 1 more variable: emotion <chr>
…
